sim/vs4x400_test.vcd
$date
	Mon Dec 29 15:38:07 2025
$end
$version
	Icarus Verilog
$end
$timescale
	1ps
$end
$scope module vs4x400_tb $end
$var wire 8 ! winner_id [7:0] $end
$var wire 32 " max_score [31:0] $end
$var wire 32 # final_acc [31:0] $end
$var reg 8 $ a0 [7:0] $end
$var reg 8 % a1 [7:0] $end
$var reg 1 & acc_en $end
$var reg 8 ' b0 [7:0] $end
$var reg 8 ( b1 [7:0] $end
$var reg 1 ) clear $end
$var reg 1 * clk $end
$var reg 1 + reset $end
$var reg 1 , update_winner $end
$var reg 8 - vector_id [7:0] $end
$var integer 32 . cycles [31:0] $end
$var integer 32 / i [31:0] $end
$var integer 32 0 v [31:0] $end
$scope module uut $end
$var wire 8 1 a0 [7:0] $end
$var wire 8 2 a1 [7:0] $end
$var wire 1 & acc_en $end
$var wire 8 3 b0 [7:0] $end
$var wire 8 4 b1 [7:0] $end
$var wire 1 ) clear $end
$var wire 1 * clk $end
$var wire 1 + reset $end
$var wire 1 , update_winner $end
$var wire 8 5 vector_id [7:0] $end
$var wire 16 6 prod1 [15:0] $end
$var wire 16 7 prod0 [15:0] $end
$var wire 32 8 final_accumulator [31:0] $end
$var reg 32 9 acc0 [31:0] $end
$var reg 32 : acc1 [31:0] $end
$var reg 32 ; max_score [31:0] $end
$var reg 8 < winner_id [7:0] $end
$upscope $end
$upscope $end
$enddefinitions $end
$comment Show the parameter values. $end
$dumpall
$end
#0
$dumpvars
b11111111 <
b10000000000000000000000000000001 ;
b0 :
b0 9
b0 8
bx 7
bx 6
bx 5
bx 4
bx 3
bx 2
bx 1
bx 0
bx /
b0 .
bx -
x,
1+
0*
x)
bx (
bx '
x&
bx %
bx $
b0 #
b10000000000000000000000000000001 "
b11111111 !
$end
#5000
1*
#10000
0*
#15000
1*
1)
b0 -
b0 5
b0 0
0+
#20000
0*
#25000
b110011000000 :
b1100110000000 #
b1100110000000 8
b110011000000 9
1*
1&
b110011000000 6
b110011 (
b110011 4
b1000000 %
b1000000 2
b110011000000 7
b110011 '
b110011 3
b1000000 $
b1000000 1
b0 /
0)
#30000
0*
#35000
b1100110000000 :
b11001100000000 #
b11001100000000 8
b1100110000000 9
1*
b10 /
b1 .
#40000
0*
#45000
bx :
bx #
bx 8
bx 9
1*
b10001110 (
b10001110 4
bx 6
bx %
bx 2
b10001110 '
b10001110 3
bx 7
bx $
bx 1
b100 /
b10 .
#50000
0*
#55000
1*
b110 /
b11 .
#60000
0*
#65000
1*
1,
0&
b1000 /
b100 .
#70000
0*
#75000
b0 #
b0 8
b0 :
b0 9
1*
1)
b1 -
b1 5
b1 0
0,
#80000
0*
#85000
b1101000000 :
b11010000000 #
b11010000000 8
b1101000000 9
1*
1&
b1101 (
b1101 4
b1101000000 6
b1000000 %
b1000000 2
b1101 '
b1101 3
b1101000000 7
b1000000 $
b1000000 1
b0 /
0)
#90000
0*
#95000
b11010000000 :
b110100000000 #
b110100000000 8
b11010000000 9
1*
b10 /
b101 .
#100000
0*
#105000
bx :
bx #
bx 8
bx 9
1*
bx (
bx 4
bx 6
bx %
bx 2
bx '
bx 3
bx 7
bx $
bx 1
b100 /
b110 .
#110000
0*
#115000
1*
b110 /
b111 .
#120000
0*
#125000
1*
1,
0&
b1000 /
b1000 .
#130000
0*
#135000
b0 #
b0 8
b0 :
b0 9
1*
1)
b10 -
b10 5
b10 0
0,
#140000
0*
#145000
bx :
bx #
bx 8
bx 9
1*
1&
b1000000 %
b1000000 2
b1000000 $
b1000000 1
b0 /
0)
#150000
0*
#155000
1*
b10 /
b1001 .
#160000
0*
#165000
1*
bx %
bx 2
bx $
bx 1
b100 /
b1010 .
#170000
0*
#175000
1*
b110 /
b1011 .
#180000
0*
#185000
1*
1,
0&
b1000 /
b1100 .
#190000
0*
#195000
1*
b11 0
0,
